{
	"source": "registry.gitlab.com/gitlab-org/security-products/analyzers/secrets",
	"source_tag": "SOURCE_TAG",
	"target": "registry.gitlab.com/gitlab-org/security-products/analyzers/secrets/tmp",
	"target_tag": "TARGET_TAG",
	"shared_env": {
		"OUTPUT_NAME": "gl-secret-detection-report.json"
	},
	"jobs": [
		{
			"REPO_URL": "https://gitlab.com/gitlab-org/security-products/tests/secrets.git",
			"REPO_NAME": "secrets-test"
		},
		{
			"REPO_URL": "https://gitlab.com/gitlab-org/security-products/sast-rules.git",
			"REPO_NAME": "sast-rules"
		},
		{
			"REPO_URL": "https://github.com/git/git.git",
			"REPO_NAME": "git"
		},
		{
			"REPO_URL": "https://github.com/FFmpeg/FFmpeg.git",
			"REPO_NAME": "ffmpeg"
		},
		{
			"REPO_URL": "https://gitlab.com/wireshark/wireshark.git",
			"REPO_NAME": "wireshark"
		},
		{
			"REPO_URL": "https://github.com/sqlite/sqlite.git",
			"REPO_NAME": "sqlite"
		},
		{
			"REPO_URL": "https://github.com/curl/curl.git",
			"REPO_NAME": "curl"
		},
		{
			"REPO_URL": "https://github.com/vim/vim.git",
			"REPO_NAME": "vim"
		},
		{
			"REPO_URL": "https://github.com/hashcat/hashcat.git",
			"REPO_NAME": "hashcat"
		},
		{
			"REPO_URL": "https://github.com/nginx/nginx.git",
			"REPO_NAME": "nginx"
		},
		{
			"REPO_URL": "https://github.com/files-community/Files.git",
			"REPO_NAME": "files-community"
		},
		{
			"REPO_URL": "https://github.com/ShareX/ShareX.git",
			"REPO_NAME": "sharex"
		},
		{
			"REPO_URL": "https://github.com/AvaloniaUI/Avalonia.git",
			"REPO_NAME": "avalonia"
		},
		{
			"REPO_URL": "https://github.com/dotnet/roslyn.git",
			"REPO_NAME": "roslyn"
		},
		{
			"REPO_URL": "https://github.com/ardalis/CleanArchitecture.git",
			"REPO_NAME": "cleanarchitecture"
		},
		{
			"REPO_URL": "https://github.com/OpenRA/OpenRA.git",
			"REPO_NAME": "openra"
		},
		{
			"REPO_URL": "https://github.com/bitwarden/server.git",
			"REPO_NAME": "server"
		},
		{
			"REPO_URL": "https://github.com/abpframework/abp.git",
			"REPO_NAME": "abp"
		},
		{
			"REPO_URL": "https://github.com/aspnetboilerplate/aspnetboilerplate.git",
			"REPO_NAME": "aspnetboilerplate"
		},
		{
			"REPO_URL": "https://github.com/kubernetes/kubernetes.git",
			"REPO_NAME": "kubernetes"
		},
		{
			"REPO_URL": "https://github.com/fatedier/frp.git",
			"REPO_NAME": "frp"
		},
		{
			"REPO_URL": "https://github.com/gin-gonic/gin.git",
			"REPO_NAME": "gin"
		},
		{
			"REPO_URL": "https://github.com/gohugoio/hugo.git",
			"REPO_NAME": "hugo"
		},
		{
			"REPO_URL": "https://github.com/moby/moby.git",
			"REPO_NAME": "moby"
		},
		{
			"REPO_URL": "https://github.com/grafana/grafana.git",
			"REPO_NAME": "grafana"
		},
		{
			"REPO_URL": "https://github.com/junegunn/fzf.git",
			"REPO_NAME": "fzf"
		},
		{
			"REPO_URL": "https://github.com/caddyserver/caddy.git",
			"REPO_NAME": "caddy"
		},
		{
			"REPO_URL": "https://github.com/traefik/traefik.git",
			"REPO_NAME": "traefik"
		},
		{
			"REPO_URL": "https://github.com/etcd-io/etcd.git",
			"REPO_NAME": "etcd"
		},
		{
			"REPO_URL": "https://github.com/ethereum/go-ethereum.git",
			"REPO_NAME": "go-ethereum"
		},
		{
			"REPO_URL": "https://github.com/gogs/gogs.git",
			"REPO_NAME": "gogs"
		},
		{
			"REPO_URL": "https://github.com/pytorch/pytorch.git",
			"REPO_NAME": "pytorch"
		},
		{
			"REPO_URL": "https://github.com/django/django.git",
			"REPO_NAME": "django"
		},
		{
			"REPO_URL": "https://github.com/pallets/flask.git",
			"REPO_NAME": "flask"
		},
		{
			"REPO_URL": "https://github.com/tiangolo/fastapi.git",
			"REPO_NAME": "fastapi"
		},
		{
			"REPO_URL": "https://github.com/home-assistant/core.git",
			"REPO_NAME": "core"
		},
		{
			"REPO_URL": "https://github.com/keras-team/keras.git",
			"REPO_NAME": "keras"
		},
		{
			"REPO_URL": "https://github.com/huggingface/transformers.git",
			"REPO_NAME": "transformers"
		},
		{
			"REPO_URL": "https://github.com/tensorflow/tensorflow.git",
			"REPO_NAME": "tensorflow"
		},
		{
			"REPO_URL": "https://github.com/psf/requests.git",
			"REPO_NAME": "requests"
		},
		{
			"REPO_URL": "https://github.com/localstack/localstack.git",
			"REPO_NAME": "localstack"
		},
		{
			"REPO_URL": "https://github.com/scrapy/scrapy.git",
			"REPO_NAME": "scrapy"
		},
		{
			"REPO_URL": "https://github.com/getify/You-Dont-Know-JS.git",
			"REPO_NAME": "you-dont-know-js"
		},
		{
			"REPO_URL": "https://github.com/axios/axios.git",
			"REPO_NAME": "axios"
		},
		{
			"REPO_URL": "https://github.com/mrdoob/three.js.git",
			"REPO_NAME": "threejs"
		},
		{
			"REPO_URL": "https://github.com/ryanmcdermott/clean-code-javascript.git",
			"REPO_NAME": "clean-code-javascript"
		},
		{
			"REPO_URL": "https://github.com/webpack/webpack.git",
			"REPO_NAME": "webpack"
		},
		{
			"REPO_URL": "https://github.com/expressjs/express.git",
			"REPO_NAME": "express"
		},
		{
			"REPO_URL": "https://github.com/chartjs/Chart.js.git",
			"REPO_NAME": "chartjs"
		},
		{
			"REPO_URL": "https://github.com/mermaid-js/mermaid.git",
			"REPO_NAME": "mermaid"
		},
		{
			"REPO_URL": "https://github.com/socketio/socket.io.git",
			"REPO_NAME": "socketio"
		},
		{
			"REPO_URL": "https://github.com/lodash/lodash.git",
			"REPO_NAME": "lodash"
		},
		{
			"REPO_URL": "https://github.com/facebook/docusaurus.git",
			"REPO_NAME": "docusaurus"
		},
		{
			"REPO_URL": "https://github.com/juliangarnier/anime.git",
			"REPO_NAME": "anime"
		},
		{
			"REPO_URL": "https://github.com/TryGhost/Ghost.git",
			"REPO_NAME": "ghost"
		},
		{
			"REPO_URL": "https://github.com/meteor/meteor.git",
			"REPO_NAME": "meteor"
		},
		{
			"REPO_URL": "https://github.com/vercel/hyper.git",
			"REPO_NAME": "hyper"
		},
		{
			"REPO_URL": "https://github.com/pixijs/pixijs.git",
			"REPO_NAME": "pixijs"
		},
		{
			"REPO_URL": "https://github.com/elastic/elasticsearch.git",
			"REPO_NAME": "elasticsearch"
		},
		{
			"REPO_URL": "https://github.com/spring-projects/spring-boot.git",
			"REPO_NAME": "spring-boot"
		},
		{
			"REPO_URL": "https://github.com/google/guava.git",
			"REPO_NAME": "guava"
		},
		{
			"REPO_URL": "https://github.com/ReactiveX/RxJava.git",
			"REPO_NAME": "rxjava"
		},
		{
			"REPO_URL": "https://github.com/square/okhttp.git",
			"REPO_NAME": "okhttp"
		},
		{
			"REPO_URL": "https://github.com/square/retrofit.git",
			"REPO_NAME": "retrofit"
		},
		{
			"REPO_URL": "https://github.com/apache/spark.git",
			"REPO_NAME": "spark"
		},
		{
			"REPO_URL": "https://github.com/xkcoding/spring-boot-demo.git",
			"REPO_NAME": "spring-boot-demo"
		},
		{
			"REPO_URL": "https://github.com/ityouknow/spring-boot-examples.git",
			"REPO_NAME": "spring-boot-examples"
		},
		{
			"REPO_URL": "https://github.com/SeleniumHQ/selenium.git",
			"REPO_NAME": "selenium"
		},
		{
			"REPO_URL": "https://github.com/alibaba/fastjson.git",
			"REPO_NAME": "fastjson"
		},
		{
			"REPO_URL": "https://github.com/xuxueli/xxl-job.git",
			"REPO_NAME": "xxl-job"
		},
		{
			"REPO_URL": "https://github.com/apache/flink.git",
			"REPO_NAME": "flink"
		},
		{
			"REPO_URL": "https://github.com/jenkinsci/jenkins.git",
			"REPO_NAME": "jenkins"
		}
	]
}